NYCflight13
…
Jeg vil se de 15 siste variablene:

Her klartr vi ikke å bruke “tail” funksjonen, derfor måtte vi bruke “arrange”. Det kan se ut som at datoene ikke er sortert etter mnd og dag.

flights |> 
  arrange(desc(month), (desc(day)))

# A tibble: 336,776 × 19
    year month   day dep_time sched_dep_time dep_delay arr_time sched_arr_time
   <int> <int> <int>    <int>          <int>     <dbl>    <int>          <int>
 1  2013    12    31       13           2359        14      439            437
 2  2013    12    31       18           2359        19      449            444
 3  2013    12    31       26           2245       101      129           2353
 4  2013    12    31      459            500        -1      655            651
 5  2013    12    31      514            515        -1      814            812
 6  2013    12    31      549            551        -2      925            900
 7  2013    12    31      550            600       -10      725            745
 8  2013    12    31      552            600        -8      811            826
 9  2013    12    31      553            600        -7      741            754
10  2013    12    31      554            550         4     1024           1027
# ℹ 336,766 more rows
# ℹ 11 more variables: arr_delay <dbl>, carrier <chr>, flight <int>,
#   tailnum <chr>, origin <chr>, dest <chr>, air_time <dbl>, distance <dbl>,
#   hour <dbl>, minute <dbl>, time_hour <dttm>
…
filtrer ut -> jeg vil kun ha med videre “1.januar.2013”

print ut de dataene og ta med kun de første 5 rekkene.

Legge til vidde for å få plass til alt.

flights |> 
  filter(month == 1, day == 1) |> 
print(
   n = 5,
  width = 70
  )

# A tibble: 842 × 19
   year month   day dep_time sched_dep_time dep_delay arr_time
  <int> <int> <int>    <int>          <int>     <dbl>    <int>
1  2013     1     1      517            515         2      830
2  2013     1     1      533            529         4      850
3  2013     1     1      542            540         2      923
4  2013     1     1      544            545        -1     1004
5  2013     1     1      554            600        -6      812
# ℹ 837 more rows
# ℹ 12 more variables: sched_arr_time <int>, arr_delay <dbl>,
#   carrier <chr>, flight <int>, tailnum <chr>, origin <chr>,
#   dest <chr>, air_time <dbl>, distance <dbl>, hour <dbl>,
#   minute <dbl>, time_hour <dttm>

Om jeg ønsker å se på flere dager i januar, for eksempel 1. , 15. og 30. :

%in% er en nyttig funksjon

print(
  filter(flights, month == 1, day %in% c(1, 15, 30)),
  n = 5,
  width = 70
  )

# A tibble: 2,636 × 19
   year month   day dep_time sched_dep_time dep_delay arr_time
  <int> <int> <int>    <int>          <int>     <dbl>    <int>
1  2013     1     1      517            515         2      830
2  2013     1     1      533            529         4      850
3  2013     1     1      542            540         2      923
4  2013     1     1      544            545        -1     1004
5  2013     1     1      554            600        -6      812
# ℹ 2,631 more rows
# ℹ 12 more variables: sched_arr_time <int>, arr_delay <dbl>,
#   carrier <chr>, flight <int>, tailnum <chr>, origin <chr>,
#   dest <chr>, air_time <dbl>, distance <dbl>, hour <dbl>,
#   minute <dbl>, time_hour <dttm>

Om jeg vil se på alle dagene utenom 1. , 15. og 30. januar :

så ved å bruke ! betyr det altså “ikke ta med”. Her betyr det da “ikke ta med dag 1, 15 og 30 i januar”

  flights %>% 
  filter(month == 1, !(day %in% c(1, 15, 30))) %>% 
  print(width = 70)

# A tibble: 24,368 × 19
    year month   day dep_time sched_dep_time dep_delay arr_time
   <int> <int> <int>    <int>          <int>     <dbl>    <int>
 1  2013     1     2       42           2359        43      518
 2  2013     1     2      126           2250       156      233
 3  2013     1     2      458            500        -2      703
 4  2013     1     2      512            515        -3      809
 5  2013     1     2      535            540        -5      831
 6  2013     1     2      536            529         7      840
 7  2013     1     2      539            545        -6      959
 8  2013     1     2      554            600        -6      845
 9  2013     1     2      554            600        -6      841
10  2013     1     2      554            600        -6      909
# ℹ 24,358 more rows
# ℹ 12 more variables: sched_arr_time <int>, arr_delay <dbl>,
#   carrier <chr>, flight <int>, tailnum <chr>, origin <chr>,
#   dest <chr>, air_time <dbl>, distance <dbl>, hour <dbl>,
#   minute <dbl>, time_hour <dttm>
…
How many flights were there in total the first two days of a month?

flights |> 
  filter(month == 1) |> 
  group_by(day) |> 
  count() |> 
  #count teller opp antallet i en gruppe
  print(n = 2)

# A tibble: 31 × 2
# Groups:   day [31]
    day     n
  <int> <int>
1     1   842
2     2   943
# ℹ 29 more rows
…
[1] 21844

Her ser vi hvilke dager som har mest flyvninger. Her er svaret 2.januar som hadde 943 flyvninger.

flights |> 
  filter(month == 1) |> 
  group_by(day) |> 
  count() |>
  arrange(desc(n)) |> 
  print(n = 1)

# A tibble: 31 × 2
# Groups:   day [31]
    day     n
  <int> <int>
1     2   943
# ℹ 30 more rows
…
